<?xml version="1.0"?>
<svg xmlns="http://www.w3.org/2000/svg" xmlns:xlink="http://www.w3.org/1999/xlink" version="1.1" id="Capa_1" x="0px" y="0px" viewBox="0 0 512 512" style="enable-background:new 0 0 512 512;" xml:space="preserve" width="512px" height="512px" class=""><g><polygon style="fill:#F05974;" points="132.414,150.069 132.414,203.034 185.379,203.034 185.379,114.759 " data-original="#F05974" class=""/><rect x="123.586" y="203.034" style="fill:#495052;" width="70.621" height="141.241" data-original="#495052"/><g>
	<path style="fill:#FF0068" d="M380.028,0c-11.591,0-22.705,4.599-30.897,12.8L238.345,123.586l61.793,61.793L410.924,74.593   c17.064-17.064,17.064-44.729,0-61.793C402.723,4.608,391.618,0,380.028,0z" data-original="#FACFCF" class="active-path" data-old_color="#FF0060"/>
	<polygon style="fill:#FF0068" points="203.034,476.69 203.034,344.276 194.207,344.276 123.586,344.276 114.759,344.276    114.759,476.69 97.103,476.69 97.103,512 220.69,512 220.69,476.69  " data-original="#FACFCF" class="active-path" data-old_color="#FF0060"/>
</g><path style="fill:#F05974;" d="M300.138,317.793L256,344.276l35.09,17.549c22.369,11.176,48.693,11.176,71.062,0l35.09-17.549  l-44.138-26.483l-26.483,8.828L300.138,317.793z" data-original="#F05974" class=""/><g>
	
		<rect x="57.386" y="65.168" transform="matrix(-0.7071 0.7071 -0.7071 -0.7071 172.3571 96.3994)" style="fill:#495052;" width="17.655" height="37.455" data-original="#495052"/>
	<rect x="26.483" y="114.759" style="fill:#495052;" width="35.31" height="17.655" data-original="#495052"/>
	
		<rect x="436.985" y="382.426" transform="matrix(-0.7071 0.7071 -0.7071 -0.7071 1044.7083 369.5741)" style="fill:#495052;" width="17.655" height="37.455" data-original="#495052"/>
	<rect x="450.207" y="352.556" style="fill:#495052;" width="35.31" height="17.655" data-original="#495052"/>
</g></g> </svg>
