<?xml version="1.0"?>
<svg xmlns="http://www.w3.org/2000/svg" xmlns:xlink="http://www.w3.org/1999/xlink" version="1.1" id="Capa_1" x="0px" y="0px" viewBox="0 0 512 512" style="enable-background:new 0 0 512 512;" xml:space="preserve" width="512px" height="512px" class=""><g><path style="fill:#9090E5" d="M84.25,15.738l55.51,55.509c7.048,7.048,7.048,18.474,0,25.522l-41.264,41.264  c-7.048,7.048-18.474,7.048-25.522,0l-55.51-55.509c-3.802-3.802-10.269-2.044-11.676,3.145  c-10.538,38.866-0.572,82.127,29.944,112.643c33.21,33.209,81.512,42.079,122.819,26.674l240.234,262.702  c24.667,26.974,66.852,27.916,92.699,2.07l0,0c25.969-25.969,24.876-68.396-2.395-92.994L225.788,159.276  c16.692-41.833,8.118-91.403-25.749-125.271C169.523,3.489,126.261-6.477,87.395,4.061C82.206,5.468,80.448,11.936,84.25,15.738z   M463.976,443.954c0,10.614-8.604,19.218-19.218,19.218c-10.614,0-19.218-8.604-19.218-19.218c0-10.614,8.604-19.218,19.218-19.218  C455.372,424.736,463.976,433.34,463.976,443.954z" data-original="#605F6D" class="active-path" data-old_color="#8F8FE5"/><g>
	<path style="fill:#53515E;" d="M203.913,135.068l23.137,20.869c14.949-41.109,5.96-88.96-27.011-121.932   c-2.475-2.475-5.043-4.798-7.676-7.002C214.111,59.194,217.958,99.869,203.913,135.068z" data-original="#53515E" class=""/>
	<path style="fill:#53515E;" d="M376.733,463.572l22.053,24.115c24.667,26.974,66.852,27.916,92.699,2.07l0,0   c25.969-25.969,24.876-68.397-2.395-92.994l-8.95-8.072c13.734,24.354,10.387,55.943-10.53,76.859l0,0   C443.763,491.395,401.4,490.547,376.733,463.572" data-original="#53515E" class=""/>
	<path style="fill:#53515E;" d="M158.552,224.985l-21.875-24.207c-38.224,14.256-82.429,7.708-115.132-19.662   c4.096,6.062,8.82,11.828,14.187,17.195C68.942,231.521,117.245,240.391,158.552,224.985" data-original="#53515E" class=""/>
	<path style="fill:#53515E;" d="M305.844,231.483l-20.423,20.423l-13.68-13.68c-8.477-8.477-22.221-8.477-30.698,0l-18.692,18.692   c4.707,12.124,4.688,25.659-0.061,37.769l45.194,49.421c9.882-4.606,20.915-5.929,31.459-3.967   c6.273,1.168,12.718-0.819,17.229-5.331l10.727-10.727c8.477-8.477,8.477-22.22,0-30.697l0,0c-7.555-7.555-7.555-19.805,0-27.36   l8.175-8.176L305.844,231.483z" data-original="#53515E" class=""/>
</g><path style="fill:#E9EBF2;" d="M507.549,63.685l-35.127-35.127c-3.379-3.379-9.064-2.52-11.294,1.706l-18.91,35.827l-172.8,172.798  l27.799,27.799l172.8-172.798l35.827-18.911C510.07,72.749,510.928,67.064,507.549,63.685z" data-original="#E9EBF2" class=""/><path style="fill:#C7CAD3;" d="M507.549,63.685l-8.868-8.868c0.621,2.961-0.682,6.193-3.628,7.747l-35.827,18.911L286.427,254.273  l-16.196-16.196l-0.812,0.812l27.799,27.799L470.017,93.89l35.827-18.911C510.07,72.749,510.928,67.064,507.549,63.685z" data-original="#C7CAD3" class=""/><path style="fill:#FFDC64;" d="M238.502,339.657c14.997-14.997,36.889-18.875,55.467-11.662l18.692-18.692  c8.477-8.477,8.477-22.221,0-30.698l-55.159-55.159c-8.477-8.477-22.221-8.477-30.697,0l-18.692,18.692  c7.213,18.578,3.334,40.47-11.662,55.467s-36.889,18.875-55.467,11.662L41.89,408.361c-23.709,23.709-23.709,62.148,0,85.857l0,0  c23.709,23.709,62.148,23.709,85.857,0l99.094-99.094C219.626,376.547,223.505,354.654,238.502,339.657z" data-original="#FFDC64"/><path style="fill:#FFC850;" d="M312.661,278.605l-13.043-13.043c1.827,7.178-0.044,15.103-5.661,20.72l-18.692,18.692  c-18.577-7.213-40.47-3.334-55.467,11.662c-14.997,14.997-18.876,36.889-11.662,55.467l-99.094,99.094  c-21.631,21.631-55.517,23.516-79.297,5.677c2.917,6.28,6.965,12.163,12.145,17.344c23.709,23.709,62.148,23.709,85.857,0  l99.094-99.094c-7.213-18.578-3.334-40.47,11.662-55.467c14.997-14.997,36.889-18.875,55.467-11.662l18.692-18.692  C321.138,300.826,321.138,287.082,312.661,278.605z" data-original="#FFC850"/><g>
	<path style="fill:#FF6B5C" d="M76.979,439.586c-2.071,0-4.142-0.79-5.723-2.37c-3.16-3.161-3.16-8.285,0-11.446l76.667-76.667   c3.161-3.159,8.285-3.159,11.446,0c3.16,3.161,3.16,8.285,0,11.446l-76.667,76.667C81.121,438.796,79.049,439.586,76.979,439.586z" data-original="#FF6B5C" class=""/>
	<path style="fill:#FF6B5C" d="M105.306,467.913c-2.071,0-4.142-0.79-5.723-2.37c-3.16-3.161-3.16-8.285,0-11.446l76.667-76.667   c3.161-3.159,8.285-3.159,11.446,0c3.16,3.161,3.16,8.285,0,11.446l-76.667,76.667   C109.448,467.123,107.376,467.913,105.306,467.913z" data-original="#FF6B5C" class=""/>
</g></g> </svg>
